{
"stats":{
"AC01_AddOrganization":0,
"AC02_AddGroupsAndRoles":0,
"AC03_AddUser":0,
"AC04_EditOrganization":0,
"AC05_EditGroupAndRoles":0,
"AC06_EditUser":0,
"AC07_ViewOrganization":0,
"AC08_DeleteGroup":0,
"AC09_DeleteRoles":0,
"AC10_UserRegistration":0,
"WS01_SearchAndViewPackage":10,
"WS02_AddPackage":45,
"WS03_EditPackage":45
}
}