﻿p_Username,p_Password,p_Organization
perf_admin_001@esign.com,Folder@12,PerformanceTest-Org
perf_admin_002@esign.com,Folder@12,PerformanceTest-Org
perf_admin_003@esign.com,Folder@12,PerformanceTest-Org
perf_admin_004@esign.com,Folder@12,PerformanceTest-Org
perf_admin_005@esign.com,Folder@12,PerformanceTest-Org
perf_admin_006@esign.com,Folder@12,PerformanceTest-Org
perf_admin_007@esign.com,Folder@12,PerformanceTest-Org
perf_admin_008@esign.com,Folder@12,PerformanceTest-Org
perf_admin_009@esign.com,Folder@12,PerformanceTest-Org
perf_admin_010@esign.com,Folder@12,PerformanceTest-Org
perf_admin_011@esign.com,Folder@12,PerformanceTest-Org
perf_admin_012@esign.com,Folder@12,PerformanceTest-Org
perf_admin_013@esign.com,Folder@12,PerformanceTest-Org
perf_admin_014@esign.com,Folder@12,PerformanceTest-Org
perf_admin_015@esign.com,Folder@12,PerformanceTest-Org
perf_admin_016@esign.com,Folder@12,PerformanceTest-Org
perf_admin_017@esign.com,Folder@12,PerformanceTest-Org
perf_admin_018@esign.com,Folder@12,PerformanceTest-Org
perf_admin_019@esign.com,Folder@12,PerformanceTest-Org
perf_admin_020@esign.com,Folder@12,PerformanceTest-Org
perf_admin_021@esign.com,Folder@12,PerformanceTest-Org
perf_admin_022@esign.com,Folder@12,PerformanceTest-Org
perf_admin_023@esign.com,Folder@12,PerformanceTest-Org
perf_admin_024@esign.com,Folder@12,PerformanceTest-Org
perf_admin_025@esign.com,Folder@12,PerformanceTest-Org
perf_admin_026@esign.com,Folder@12,PerformanceTest-Org
perf_admin_027@esign.com,Folder@12,PerformanceTest-Org
perf_admin_028@esign.com,Folder@12,PerformanceTest-Org
perf_admin_029@esign.com,Folder@12,PerformanceTest-Org
perf_admin_030@esign.com,Folder@12,PerformanceTest-Org
perf_admin_031@esign.com,Folder@12,PerformanceTest-Org
perf_admin_032@esign.com,Folder@12,PerformanceTest-Org
perf_admin_033@esign.com,Folder@12,PerformanceTest-Org
perf_admin_034@esign.com,Folder@12,PerformanceTest-Org
perf_admin_035@esign.com,Folder@12,PerformanceTest-Org
perf_admin_036@esign.com,Folder@12,PerformanceTest-Org
perf_admin_037@esign.com,Folder@12,PerformanceTest-Org
perf_admin_038@esign.com,Folder@12,PerformanceTest-Org
perf_admin_039@esign.com,Folder@12,PerformanceTest-Org
perf_admin_040@esign.com,Folder@12,PerformanceTest-Org
perf_admin_041@esign.com,Folder@12,PerformanceTest-Org
perf_admin_042@esign.com,Folder@12,PerformanceTest-Org
perf_admin_043@esign.com,Folder@12,PerformanceTest-Org
perf_admin_044@esign.com,Folder@12,PerformanceTest-Org
perf_admin_045@esign.com,Folder@12,PerformanceTest-Org
perf_admin_046@esign.com,Folder@12,PerformanceTest-Org
perf_admin_047@esign.com,Folder@12,PerformanceTest-Org
perf_admin_048@esign.com,Folder@12,PerformanceTest-Org
perf_admin_049@esign.com,Folder@12,PerformanceTest-Org
perf_admin_050@esign.com,Folder@12,PerformanceTest-Org
perf_admin_051@esign.com,Folder@12,PerformanceTest-Org
perf_admin_052@esign.com,Folder@12,PerformanceTest-Org
perf_admin_053@esign.com,Folder@12,PerformanceTest-Org
perf_admin_054@esign.com,Folder@12,PerformanceTest-Org
perf_admin_055@esign.com,Folder@12,PerformanceTest-Org
perf_admin_056@esign.com,Folder@12,PerformanceTest-Org
perf_admin_057@esign.com,Folder@12,PerformanceTest-Org
perf_admin_058@esign.com,Folder@12,PerformanceTest-Org
perf_admin_059@esign.com,Folder@12,PerformanceTest-Org
perf_admin_060@esign.com,Folder@12,PerformanceTest-Org
perf_admin_061@esign.com,Folder@12,PerformanceTest-Org
perf_admin_062@esign.com,Folder@12,PerformanceTest-Org
perf_admin_063@esign.com,Folder@12,PerformanceTest-Org
perf_admin_064@esign.com,Folder@12,PerformanceTest-Org
perf_admin_065@esign.com,Folder@12,PerformanceTest-Org
perf_admin_066@esign.com,Folder@12,PerformanceTest-Org
perf_admin_067@esign.com,Folder@12,PerformanceTest-Org
perf_admin_068@esign.com,Folder@12,PerformanceTest-Org
perf_admin_069@esign.com,Folder@12,PerformanceTest-Org
perf_admin_070@esign.com,Folder@12,PerformanceTest-Org
perf_admin_071@esign.com,Folder@12,PerformanceTest-Org
perf_admin_072@esign.com,Folder@12,PerformanceTest-Org
perf_admin_073@esign.com,Folder@12,PerformanceTest-Org
perf_admin_074@esign.com,Folder@12,PerformanceTest-Org
perf_admin_075@esign.com,Folder@12,PerformanceTest-Org
perf_admin_076@esign.com,Folder@12,PerformanceTest-Org
perf_admin_077@esign.com,Folder@12,PerformanceTest-Org
perf_admin_078@esign.com,Folder@12,PerformanceTest-Org
perf_admin_079@esign.com,Folder@12,PerformanceTest-Org
perf_admin_080@esign.com,Folder@12,PerformanceTest-Org
perf_admin_081@esign.com,Folder@12,PerformanceTest-Org
perf_admin_082@esign.com,Folder@12,PerformanceTest-Org
perf_admin_083@esign.com,Folder@12,PerformanceTest-Org
perf_admin_084@esign.com,Folder@12,PerformanceTest-Org
perf_admin_085@esign.com,Folder@12,PerformanceTest-Org
perf_admin_086@esign.com,Folder@12,PerformanceTest-Org
perf_admin_087@esign.com,Folder@12,PerformanceTest-Org
perf_admin_088@esign.com,Folder@12,PerformanceTest-Org
perf_admin_089@esign.com,Folder@12,PerformanceTest-Org
perf_admin_090@esign.com,Folder@12,PerformanceTest-Org
perf_admin_091@esign.com,Folder@12,PerformanceTest-Org
perf_admin_092@esign.com,Folder@12,PerformanceTest-Org
perf_admin_093@esign.com,Folder@12,PerformanceTest-Org
perf_admin_094@esign.com,Folder@12,PerformanceTest-Org
perf_admin_095@esign.com,Folder@12,PerformanceTest-Org
perf_admin_096@esign.com,Folder@12,PerformanceTest-Org
perf_admin_097@esign.com,Folder@12,PerformanceTest-Org
perf_admin_098@esign.com,Folder@12,PerformanceTest-Org
perf_admin_099@esign.com,Folder@12,PerformanceTest-Org
perf_admin_100@esign.com,Folder@12,PerformanceTest-Org
